
CATEGORY=FEAT|Keen Intellect.MOD			TYPE:Ancestor		DESC:.CLEAR		BONUS:SKILL|Heal,Sense Motive,Spot,Survival|max(WIS,INT)-WIS		BONUS:SAVE|Will|max(INT,WIS)-WIS		DESC:.CLEAR				DESC:You are descended from Agasha, the founder of the original Dragon shugenja school, a shugenja known for her keen intellect and powers of observation.		BENEFIT:You may use your Intelligence modifier instead of your Wisdom modifier when making Heal, Sense Motive, Spot, or Survival checks. You may also use your Intelligence modifier instead of Wisdom when making a Will saving throw.

